// Jest Snapshot v1, https://goo.gl/fbAQLP

exports[`Basic Render Testing matches snapshot 1`] = `
<DocumentFragment>
  <a
    class="className"
    href="/yo/momma"
  >
    Link Text
  </a>
</DocumentFragment>
`;
